{"pagination": {"limit": 5,"page": 1,"total_pages": 181,"total": 905},"result": [{"DCName": "NATOMAS DC","ReceivedDateTime": "2014-06-08","ExpectedDeliveryDateTime": "","PONumber": "40145","POLineNumber": "001","ItemNumber": "0782834","ItemName": "","VendorCode": "0006000","VendorName":"","QuantityOfCases": "0000116","POLineNumberValue": "0000.01090","CarrierName": "","ProgramName": "Raleys"},{"DCName": "NATOMAS DC","ReceivedDateTime": "2014-06-08","ExpectedDeliveryDateTime": "","PONumber": "40145","POLineNumber": "002","ItemNumber": "0782834","ItemName":"","VendorCode": "0006000","VendorName": "","QuantityOfCases": "0000217","POLineNumberValue": "0000.01090","CarrierName":"","ProgramName": "Raleys"},{"DCName": "NATOMAS DC","ReceivedDateTime": "2014-06-08","ExpectedDeliveryDateTime":"","PONumber": "41666","POLineNumber": "001","ItemNumber": "0700280","ItemName": "","VendorCode": "0243400","VendorName": "","QuantityOfCases": "0000912","POLineNumberValue": "0014.34000","CarrierName": "","ProgramName": "Raleys"},{"DCName": "NATOMAS DC","ReceivedDateTime": "2014-06-08","ExpectedDeliveryDateTime": "","PONumber": "41666","POLineNumber": "004","ItemNumber": "0700286","ItemName": "","VendorCode": "0243400","VendorName":"","QuantityOfCases": "0000048","POLineNumberValue": "0010.08000","CarrierName": "","ProgramName": "Raleys"},{"DCName": "NATOMAS DC","ReceivedDateTime": "2014-06-08","ExpectedDeliveryDateTime": "","PONumber": "41666","POLineNumber": "007","ItemNumber": "0700288","ItemName":"","VendorCode": "0243400","VendorName": "","QuantityOfCases": "0000040","POLineNumberValue": "0010.08000","CarrierName":"","ProgramName": "Raleys"}]}